\relax 
\@writefile{toc}{\contentsline {section}{\numberline {1}Background and Rationale}{1}\protected@file@percent }
\@writefile{toc}{\contentsline {section}{\numberline {2}Research Questions}{2}\protected@file@percent }
\@writefile{toc}{\contentsline {section}{\numberline {3}Theoretical Framework and Methodological Approach}{2}\protected@file@percent }
\@writefile{toc}{\contentsline {section}{\numberline {4}Current Research Landscape}{5}\protected@file@percent }
\@writefile{toc}{\contentsline {section}{\numberline {5}Publication Intentions}{5}\protected@file@percent }
